Visual Working Memory Color Analysis
…
# Calculate group-level statistics
group_accuracy <- accuracy_summary %>%
  group_by(Experiment, WMSize, color_similarity) %>%
  summarise(
    n_subjects = n(),
    mean_accuracy = mean(accuracy, na.rm = TRUE),
    sd_accuracy = sd(accuracy, na.rm = TRUE),
    se_accuracy = sd_accuracy / sqrt(n_subjects),
    .groups = "drop"
  )

print(group_accuracy)

# A tibble: 45 × 7
   Experiment       WMSize color_similarity n_subjects mean_accuracy sd_accuracy
   <chr>             <dbl> <fct>                 <int>         <dbl>       <dbl>
 1 Exp1_Encoding         1 Same Color               16         0.974      0.0328
 2 Exp1_Encoding         1 More Similar             16         0.574      0.134 
 3 Exp1_Encoding         1 Less Similar             16         0.912      0.0770
 4 Exp1_Encoding         3 Same Color               16         0.711      0.155 
 5 Exp1_Encoding         3 More Similar             16         0.616      0.190 
 6 Exp1_Encoding         3 Less Similar             16         0.796      0.127 
 7 Exp1_Encoding         5 Same Color               16         0.6        0.188 
 8 Exp1_Encoding         5 More Similar             16         0.639      0.135 
 9 Exp1_Encoding         5 Less Similar             16         0.764      0.131 
10 Exp2_Reproducti…      1 Same Color               16         0.915      0.0869
# ℹ 35 more rows
# ℹ 1 more variable: se_accuracy <dbl>
…
cat("\nData availability by condition:\n")

Data availability by condition:

Code

print(duration_summary)

# A tibble: 45 × 5
   Experiment        WMSize color_similarity n_trials n_subjects
   <chr>              <dbl> <fct>               <int>      <int>
 1 Exp1_Encoding          1 Same Color            964         16
 2 Exp1_Encoding          1 More Similar          253         16
 3 Exp1_Encoding          1 Less Similar          703         16
 4 Exp1_Encoding          3 Same Color            963         16
 5 Exp1_Encoding          3 More Similar          280         16
 6 Exp1_Encoding          3 Less Similar          677         16
 7 Exp1_Encoding          5 Same Color            960         16
 8 Exp1_Encoding          5 More Similar          274         16
 9 Exp1_Encoding          5 Less Similar          686         16
10 Exp2_Reproduction      1 Same Color            961         16
# ℹ 35 more rows
…
cat("Central Tendency Effect Slopes (more negative = stronger central tendency):\n")

Central Tendency Effect Slopes (more negative = stronger central tendency):

Code

print(slope_summary)

# A tibble: 45 × 7
   Experiment    WMSize color_similarity n_subjects mean_slope sd_slope se_slope
   <chr>          <dbl> <fct>                 <int>      <dbl>    <dbl>    <dbl>
 1 Exp1_Encoding      1 Same Color               16     -0.472    0.230   0.0576
 2 Exp1_Encoding      1 More Similar             16     -0.453    0.335   0.0838
 3 Exp1_Encoding      1 Less Similar             16     -0.481    0.202   0.0505
 4 Exp1_Encoding      3 Same Color               16     -0.624    0.236   0.0589
 5 Exp1_Encoding      3 More Similar             16     -0.582    0.239   0.0597
 6 Exp1_Encoding      3 Less Similar             16     -0.541    0.236   0.0590
 7 Exp1_Encoding      5 Same Color               16     -0.644    0.210   0.0526
 8 Exp1_Encoding      5 More Similar             16     -0.609    0.232   0.0580
 9 Exp1_Encoding      5 Less Similar             16     -0.626    0.230   0.0574
10 Exp2_Reprodu…      1 Same Color               16     -0.502    0.176   0.0440
# ℹ 35 more rows
…
cat("\nTests against zero slope (no central tendency):\n")

Tests against zero slope (no central tendency):

Code

print(slope_tests)

# A tibble: 45 × 9
   Experiment       WMSize color_similarity n_subjects t_stat p_value mean_slope
   <chr>             <dbl> <fct>                 <int>  <dbl>   <dbl>      <dbl>
 1 Exp1_Encoding         1 Same Color               16  -8.19 6.44e-7     -0.472
 2 Exp1_Encoding         1 More Similar             16  -5.40 7.31e-5     -0.453
 3 Exp1_Encoding         1 Less Similar             16  -9.52 9.48e-8     -0.481
 4 Exp1_Encoding         3 Same Color               16 -10.6  2.33e-8     -0.624
 5 Exp1_Encoding         3 More Similar             16  -9.74 7.03e-8     -0.582
 6 Exp1_Encoding         3 Less Similar             16  -9.17 1.55e-7     -0.541
 7 Exp1_Encoding         5 Same Color               16 -12.2  3.27e-9     -0.644
 8 Exp1_Encoding         5 More Similar             16 -10.5  2.63e-8     -0.609
 9 Exp1_Encoding         5 Less Similar             16 -10.9  1.58e-8     -0.626
10 Exp2_Reproducti…      1 Same Color               16 -11.4  8.53e-9     -0.502
# ℹ 35 more rows
# ℹ 2 more variables: ci_lower <dbl>, ci_upper <dbl>
…
